<svg width="49" height="48" viewBox="0 0 49 48" fill="none" xmlns="http://www.w3.org/2000/svg">
<g clip-path="url(#clip0_126_12063)">
<path fill-rule="evenodd" clip-rule="evenodd" d="M3.62515 47.9334H0.514893V40.7733H3.62515C5.86595 40.7733 6.98785 41.9018 6.98785 44.1582C6.98785 46.6736 5.86595 47.9334 3.62515 47.9334ZM1.84486 46.781H3.42427C4.91314 46.781 5.65668 45.9067 5.65668 44.157C5.65668 42.6675 4.91314 41.9228 3.42427 41.9228H1.84486V46.781ZM8.38138 47.9334H7.01603L10.0615 40.7733H11.491L14.6031 47.9334H13.1724L12.2693 45.9805H9.97098L10.4279 44.8298H11.9186L10.7439 42.1399L8.38138 47.9334ZM13.8512 40.7733H19.2958V41.9246H17.2384V47.9334H15.9091V41.9246H13.8506L13.8512 40.7733ZM19.9793 47.9334H18.614L21.6601 40.7733H23.0896L26.201 47.9334H24.7703L23.8673 45.9805H21.5689L22.0246 44.8298H23.5153L22.3407 42.1399L19.9793 47.9334ZM30.1933 47.9334H27.0831V40.7733H30.1933C32.4353 40.7733 33.556 41.9018 33.556 44.1582C33.556 46.6736 32.4353 47.9334 30.1933 47.9334ZM28.4125 46.781H29.9931C31.4807 46.781 32.2261 45.9067 32.2261 44.157C32.2261 42.6675 31.4807 41.9228 29.9931 41.9228H28.4125V46.781ZM34.4561 44.3633C34.4561 41.9354 35.6583 40.7217 38.0598 40.7217C40.4248 40.7217 41.6066 41.9354 41.6066 44.3633C41.6066 46.7768 40.4248 47.985 38.0598 47.985C35.7645 47.9844 34.5646 46.7768 34.4561 44.3633ZM38.0598 46.8307C39.5043 46.8307 40.2269 45.9984 40.2269 44.3327C40.2269 42.6927 39.5043 41.8718 38.0598 41.8718C36.5776 41.8718 35.837 42.6927 35.837 44.3327C35.8376 45.9984 36.5782 46.8307 38.0598 46.8307ZM47.1549 45.036V46.712C46.8479 46.7924 46.5727 46.8313 46.3323 46.8313C44.7055 46.8313 43.8936 45.9721 43.8936 44.2529C43.8936 42.6657 44.7558 41.8724 46.4774 41.8724C47.1969 41.8724 47.8655 42.0061 48.4843 42.2736V41.0713C47.8661 40.8381 47.1639 40.7205 46.3772 40.7205C43.8018 40.7205 42.5132 41.897 42.5132 44.2523C42.5132 46.7384 43.7797 47.9838 46.3119 47.9838C47.1831 47.9838 47.9069 47.8567 48.4849 47.6024V43.8566H46.3377L45.8885 45.0348H47.1549V45.036Z" fill="#632CA6"/>
<path fill-rule="evenodd" clip-rule="evenodd" d="M36.4996 27.0269L33.3347 24.939L30.6946 29.3493L27.6239 28.4516L24.9202 32.5782L25.0587 33.877L39.7597 31.1679L38.9058 21.9823L36.4996 27.0269ZM22.7903 23.067L25.1492 22.7426C25.5306 22.9141 25.7962 22.9794 26.2538 23.0958C26.9667 23.281 27.7912 23.4591 29.0126 22.8439C29.2969 22.703 29.8893 22.1615 30.1285 21.8527L39.7921 20.1L40.7779 32.0314L24.2216 35.0151L22.7903 23.067ZM40.7407 18.7677L39.7867 18.9494L37.9542 0.0155869L6.72876 3.63612L10.576 34.8538L14.2313 34.3231C13.9393 33.9064 13.4847 33.4021 12.7088 32.7569C11.6325 31.8629 12.0127 30.3434 12.6483 29.384C13.4883 27.7632 17.817 25.7035 17.5718 23.1132C17.4836 22.1711 17.3343 20.9455 16.4595 20.1048C16.4265 20.4538 16.4859 20.789 16.4859 20.789C16.4859 20.789 16.1267 20.3309 15.948 19.7067C15.7705 19.4668 15.6308 19.3907 15.4419 19.0705C15.307 19.4404 15.325 19.8698 15.325 19.8698C15.325 19.8698 15.0312 19.176 14.9838 18.5902C14.8099 18.8522 14.7661 19.3499 14.7661 19.3499C14.7661 19.3499 14.3848 18.2562 14.4717 17.6668C14.2978 17.1541 13.7816 16.1365 13.9273 13.8244C14.8801 14.4917 16.9782 14.3334 17.7954 13.1288C18.0665 12.7294 18.253 11.6405 17.6599 9.49386C17.2792 8.11772 16.3366 6.0682 15.969 5.29049L15.9252 5.32227C16.1189 5.94888 16.5182 7.26146 16.6717 7.89886C17.1359 9.82965 17.26 10.5024 17.0423 11.3929C16.857 12.167 16.4127 12.6731 15.2866 13.2391C14.1605 13.807 12.6656 12.4248 12.5715 12.3487C11.4772 11.4768 10.6305 10.0551 10.5364 9.36375C10.438 8.60762 10.9723 8.1537 11.2415 7.53549C10.856 7.64522 10.4266 7.8413 10.4266 7.8413C10.4266 7.8413 10.9393 7.31063 11.5713 6.85191C11.8334 6.67862 11.9869 6.56829 12.2627 6.33923C11.8634 6.33264 11.539 6.34403 11.539 6.34403C11.539 6.34403 12.2051 5.98426 12.8953 5.72222C12.3904 5.70003 11.9065 5.71862 11.9065 5.71862C11.9065 5.71862 13.393 5.05364 14.5665 4.56614C15.3736 4.23515 16.1621 4.33289 16.6052 4.97389C17.1868 5.81336 17.7978 6.26908 19.0924 6.5515C19.8875 6.19892 20.1286 6.01844 21.1276 5.74561C22.0066 4.77841 22.6968 4.65369 22.6968 4.65369C22.6968 4.65369 22.3544 4.96789 22.2627 5.46138C22.7609 5.06863 23.3072 4.74063 23.3072 4.74063C23.3072 4.74063 23.0955 5.00147 22.8983 5.41641L22.9438 5.48477C23.5255 5.13579 24.209 4.86116 24.209 4.86116C24.209 4.86116 24.0136 5.1082 23.7845 5.4278C24.2234 5.42421 25.1127 5.44639 25.4581 5.48537C27.4962 5.53034 27.9189 3.30933 28.7008 3.0305C29.68 2.68092 30.1177 2.46925 31.7865 4.10863C33.2178 5.51655 34.3367 8.03498 33.7809 8.59922C33.3149 9.06753 32.3963 8.41634 31.3782 7.14753C30.8403 6.47535 30.4331 5.68085 30.2425 4.67108C30.0818 3.81901 29.4558 3.32492 29.4558 3.32492C29.4558 3.32492 29.8185 4.13441 29.8185 4.84737C29.8185 5.23712 29.8671 6.69361 30.4919 7.5115C30.4301 7.63083 30.4014 8.10273 30.333 8.19328C29.6063 7.31483 28.0454 6.68642 27.7906 6.50113C28.6523 7.20689 30.6322 8.82828 31.3925 10.3831C32.1121 11.8528 31.6882 13.2001 32.0521 13.5485C32.1559 13.6481 33.5992 15.4469 33.8768 16.3506C34.3613 17.9252 33.9056 19.5808 33.2718 20.6073L31.5011 20.8831C31.242 20.8112 31.0675 20.7752 30.8355 20.6409C30.9638 20.4142 31.2181 19.8494 31.2205 19.7325L31.1203 19.5574C30.5693 20.3381 29.6464 21.096 28.8795 21.5313C27.8757 22.1004 26.7191 22.0122 25.9659 21.7796C23.8289 21.1206 21.8075 19.6761 21.32 19.2965C21.32 19.2965 21.305 19.5993 21.3968 19.6677C21.9353 20.2757 23.1699 21.3748 24.3637 22.1418L21.8195 22.4218L23.0224 31.7861C22.4893 31.8623 22.406 31.9001 21.8225 31.9828C21.308 30.1653 20.3241 28.9787 19.2483 28.2873C18.2997 27.6775 16.9913 27.5402 15.7393 27.7884L15.659 27.882C16.5296 27.7914 17.5574 27.9173 18.6133 28.5859C19.6495 29.2413 20.4848 30.9341 20.7924 31.9528C21.1863 33.2552 21.4586 34.6487 20.3984 36.1256C19.6447 37.1756 17.4441 37.7554 15.6656 36.5004C16.1405 37.2643 16.7821 37.8885 17.6467 38.006C18.9299 38.1805 20.1478 37.9575 20.986 37.097C21.7014 36.3613 22.0816 34.8226 21.9814 33.2024L23.1141 33.0381L23.5231 35.9463L42.2703 33.6887L40.7407 18.7677ZM29.3346 10.87C29.2825 10.9893 29.1997 11.0679 29.3232 11.4564L29.3304 11.4786L29.3502 11.529L29.4018 11.6453C29.6242 12.1004 29.8683 12.5292 30.2772 12.7486C30.3828 12.7306 30.4925 12.7186 30.6058 12.7133C30.9896 12.6965 31.2318 12.757 31.3847 12.8398C31.3985 12.763 31.4015 12.6515 31.3931 12.4866C31.3632 11.9104 31.5071 10.9306 30.3996 10.4149C29.9816 10.2212 29.3952 10.2806 29.1997 10.5228C29.2351 10.5276 29.2669 10.5348 29.2921 10.5432C29.5883 10.6457 29.388 10.7477 29.3346 10.87ZM32.4395 16.2462C32.2944 16.1659 31.6156 16.1977 31.1383 16.2546C30.2293 16.362 29.2477 16.6768 29.033 16.8447C28.6421 17.1469 28.8196 17.6734 29.1086 17.8898C29.9187 18.4948 30.6286 18.9008 31.3776 18.8018C31.8375 18.7413 32.2434 18.0127 32.5306 17.352C32.7273 16.8968 32.7273 16.4057 32.4395 16.2462ZM24.3919 11.583C24.648 11.3395 23.1153 11.0199 21.9257 11.8312C21.0484 12.4296 21.0202 13.7128 21.8603 14.4402C21.9443 14.5121 22.0138 14.5631 22.078 14.6051C22.3232 14.4893 22.6026 14.373 22.9246 14.2687C23.4679 14.0924 23.92 14.0012 24.2912 13.9527C24.4687 13.7542 24.6755 13.4046 24.624 12.7714C24.5532 11.9122 23.9032 12.0483 24.3919 11.583Z" fill="#632CA6"/>
</g>
<defs>
<clipPath id="clip0_126_12063">
<rect width="48" height="48" fill="white" transform="translate(0.5)"/>
</clipPath>
</defs>
</svg>
